{    
    "labels": {
        "Background":              0,
        "Right Lobules I-V":       3,
        "Right Lobule VI":         4,
        "Right Crus I":            5,
        "Right Crus II/VIIB":      6,
        "Right Lobule VIII":       7,
        "Right Lobule IX":         8,
        "Right Lobule X":          9,
        "Left Lobules I-V":       10,
        "Left Lobule VI":         11,
        "Left Crus I":            12,
        "Left Crus II/VIIB":      13,
        "Left Lobule VIII":       14,
        "Left Lobule IX":         15,
        "Left Lobule X":          16,
        "Vermis I-V":             17,
        "Vermis VI-VII":          18,
        "Vermis VIII-X":          19,
        "Corpus Medullare":       20
    },
    "pairs": [
       [3, 10],
       [4, 11],
       [5, 12],
       [6, 13],
       [7, 14],
       [8, 15],
       [9, 16]
    ]
}
